{
   "trumpf":"OBE_ABE",
   "geschoben":false,
   "point_limit":1500,
   "teams":[
      {
         "points":72
      },
      {
         "points":73
      }
   ],
   "stiche":[
      {
         "player_id":0,
         "played_cards":[
            {
               "player_id":0,
               "card":"<BELL:Koennig>"
            },
            {
               "player_id":1,
               "card":"<BELL:Banner>"
            },
            {
               "player_id":2,
               "card":"<BELL:6>"
            },
            {
               "player_id":3,
               "card":"<BELL:9>"
            }
         ],
         "trumpf":"OBE_ABE"
      },
      {
         "player_id":1,
         "played_cards":[
            {
               "player_id":0,
               "card":"<SHIELD:Ober>"
            },
            {
               "player_id":1,
               "card":"<SHIELD:Ass>"
            },
            {
               "player_id":2,
               "card":"<SHIELD:7>"
            },
            {
               "player_id":3,
               "card":"<SHIELD:8>"
            }
         ],
         "trumpf":"OBE_ABE"
      },
      {
         "player_id":1,
         "played_cards":[
            {
               "player_id":1,
               "card":"<ROSE:Koennig>"
            },
            {
               "player_id":2,
               "card":"<ROSE:6>"
            },
            {
               "player_id":3,
               "card":"<ROSE:9>"
            },
            {
               "player_id":0,
               "card":"<BELL:8>"
            }
         ],
         "trumpf":"OBE_ABE"
      },
      {
         "player_id":1,
         "played_cards":[
            {
               "player_id":1,
               "card":"<BELL:Ass>"
            },
            {
               "player_id":2,
               "card":"<BELL:7>"
            },
            {
               "player_id":3,
               "card":"<BELL:Under>"
            },
            {
               "player_id":0,
               "card":"<BELL:Ober>"
            }
         ],
         "trumpf":"OBE_ABE"
      },
      {
         "player_id":2,
         "played_cards":[
            {
               "player_id":1,
               "card":"<SHIELD:9>"
            },
            {
               "player_id":2,
               "card":"<SHIELD:Under>"
            },
            {
               "player_id":3,
               "card":"<ROSE:Banner>"
            },
            {
               "player_id":0,
               "card":"<SHIELD:Banner>"
            }
         ],
         "trumpf":"OBE_ABE"
      },
      {
         "player_id":2,
         "played_cards":[
            {
               "player_id":2,
               "card":"<ACORN:Ass>"
            },
            {
               "player_id":3,
               "card":"<ACORN:Banner>"
            },
            {
               "player_id":0,
               "card":"<ACORN:9>"
            },
            {
               "player_id":1,
               "card":"<ACORN:Ober>"
            }
         ],
         "trumpf":"OBE_ABE"
      },
      {
         "player_id":3,
         "played_cards":[
            {
               "player_id":2,
               "card":"<ROSE:8>"
            },
            {
               "player_id":3,
               "card":"<ROSE:Ass>"
            },
            {
               "player_id":0,
               "card":"<ACORN:Under>"
            },
            {
               "player_id":1,
               "card":"<ROSE:Under>"
            }
         ],
         "trumpf":"OBE_ABE"
      },
      {
         "player_id":2,
         "played_cards":[
            {
               "player_id":3,
               "card":"<ACORN:8>"
            },
            {
               "player_id":0,
               "card":"<SHIELD:6>"
            },
            {
               "player_id":1,
               "card":"<ACORN:7>"
            },
            {
               "player_id":2,
               "card":"<ACORN:Koennig>"
            }
         ],
         "trumpf":"OBE_ABE"
      }
   ],
   "table":[
      {
         "player_id":3,
         "card":"<ACORN:8>"
      },
      {
         "player_id":0,
         "card":"<SHIELD:6>"
      },
      {
         "player_id":1,
         "card":"<ACORN:7>"
      },
      {
         "player_id":2,
         "card":"<ACORN:Koennig>"
      }
   ]
}